%YAML 1.1
%TAG !u! tag:unity3d.com,2011:
--- !u!74 &7400000
AnimationClip:
  m_ObjectHideFlags: 0
  m_CorrespondingSourceObject: {fileID: 0}
  m_PrefabInstance: {fileID: 0}
  m_PrefabAsset: {fileID: 0}
  m_Name: Explosion1Animation
  serializedVersion: 6
  m_Legacy: 0
  m_Compressed: 0
  m_UseHighQualityCurve: 1
  m_RotationCurves: []
  m_CompressedRotationCurves: []
  m_EulerCurves: []
  m_PositionCurves: []
  m_ScaleCurves: []
  m_FloatCurves: []
  m_PPtrCurves:
  - curve:
    - time: 0
      value: {fileID: 4585791342908316790, guid: 2af0495d30aae1542bd106cc71599b7f,
        type: 3}
    - time: 0.05
      value: {fileID: 8907844407333882810, guid: 2af0495d30aae1542bd106cc71599b7f,
        type: 3}
    - time: 0.1
      value: {fileID: 670553273723837361, guid: 2af0495d30aae1542bd106cc71599b7f,
        type: 3}
    - time: 0.15
      value: {fileID: -8181786317925028736, guid: 2af0495d30aae1542bd106cc71599b7f,
        type: 3}
    - time: 0.2
      value: {fileID: -533388249586206465, guid: 2af0495d30aae1542bd106cc71599b7f,
        type: 3}
    - time: 0.23333333
      value: {fileID: -2739606032777228863, guid: 2af0495d30aae1542bd106cc71599b7f,
        type: 3}
    - time: 0.28333333
      value: {fileID: 4999594965777884229, guid: 2af0495d30aae1542bd106cc71599b7f,
        type: 3}
    - time: 0.33333334
      value: {fileID: 247374777611382053, guid: 2af0495d30aae1542bd106cc71599b7f,
        type: 3}
    - time: 0.38333333
      value: {fileID: -2869775390604252563, guid: 2af0495d30aae1542bd106cc71599b7f,
        type: 3}
    - time: 0.43333334
      value: {fileID: 6895489426819877146, guid: 2af0495d30aae1542bd106cc71599b7f,
        type: 3}
    - time: 0.48333332
      value: {fileID: -6425095540678261178, guid: 2af0495d30aae1542bd106cc71599b7f,
        type: 3}
    attribute: m_Sprite
    path: 
    classID: 212
    script: {fileID: 0}
  m_SampleRate: 60
  m_WrapMode: 0
  m_Bounds:
    m_Center: {x: 0, y: 0, z: 0}
    m_Extent: {x: 0, y: 0, z: 0}
  m_ClipBindingConstant:
    genericBindings:
    - serializedVersion: 2
      path: 0
      attribute: 0
      script: {fileID: 0}
      typeID: 212
      customType: 23
      isPPtrCurve: 1
    pptrCurveMapping:
    - {fileID: 4585791342908316790, guid: 2af0495d30aae1542bd106cc71599b7f, type: 3}
    - {fileID: 8907844407333882810, guid: 2af0495d30aae1542bd106cc71599b7f, type: 3}
    - {fileID: 670553273723837361, guid: 2af0495d30aae1542bd106cc71599b7f, type: 3}
    - {fileID: -8181786317925028736, guid: 2af0495d30aae1542bd106cc71599b7f, type: 3}
    - {fileID: -533388249586206465, guid: 2af0495d30aae1542bd106cc71599b7f, type: 3}
    - {fileID: -2739606032777228863, guid: 2af0495d30aae1542bd106cc71599b7f, type: 3}
    - {fileID: 4999594965777884229, guid: 2af0495d30aae1542bd106cc71599b7f, type: 3}
    - {fileID: 247374777611382053, guid: 2af0495d30aae1542bd106cc71599b7f, type: 3}
    - {fileID: -2869775390604252563, guid: 2af0495d30aae1542bd106cc71599b7f, type: 3}
    - {fileID: 6895489426819877146, guid: 2af0495d30aae1542bd106cc71599b7f, type: 3}
    - {fileID: -6425095540678261178, guid: 2af0495d30aae1542bd106cc71599b7f, type: 3}
  m_AnimationClipSettings:
    serializedVersion: 2
    m_AdditiveReferencePoseClip: {fileID: 0}
    m_AdditiveReferencePoseTime: 0
    m_StartTime: 0
    m_StopTime: 0.5
    m_OrientationOffsetY: 0
    m_Level: 0
    m_CycleOffset: 0
    m_HasAdditiveReferencePose: 0
    m_LoopTime: 0
    m_LoopBlend: 0
    m_LoopBlendOrientation: 0
    m_LoopBlendPositionY: 0
    m_LoopBlendPositionXZ: 0
    m_KeepOriginalOrientation: 0
    m_KeepOriginalPositionY: 1
    m_KeepOriginalPositionXZ: 0
    m_HeightFromFeet: 0
    m_Mirror: 0
  m_EditorCurves: []
  m_EulerEditorCurves: []
  m_HasGenericRootTransform: 0
  m_HasMotionFloatCurves: 0
  m_Events: []
