%YAML 1.1
%TAG !u! tag:unity3d.com,2011:
--- !u!114 &11400000
MonoBehaviour:
  m_ObjectHideFlags: 0
  m_CorrespondingSourceObject: {fileID: 0}
  m_PrefabInstance: {fileID: 0}
  m_PrefabAsset: {fileID: 0}
  m_GameObject: {fileID: 0}
  m_Enabled: 1
  m_EditorHideFlags: 0
  m_Script: {fileID: 11500000, guid: 9d1514134bc4fbd41bb739b1b9a49231, type: 3}
  m_Name: IceBlockTileNewColor
  m_EditorClassIdentifier: 
  m_DefaultSprite: {fileID: 8970537585682744296, guid: 782ea9ba40cecbe42bcee50931c0e299,
    type: 3}
  m_DefaultGameObject: {fileID: 0}
  m_DefaultColliderType: 2
  m_TilingRules:
  - m_Neighbors: 0000000002000000000000000200000001000000000000000100000000000000
    m_Sprites:
    - {fileID: 6705693166954077170, guid: 782ea9ba40cecbe42bcee50931c0e299, type: 3}
    - {fileID: -6419453230027686099, guid: 782ea9ba40cecbe42bcee50931c0e299, type: 3}
    - {fileID: 9198933658467553635, guid: 782ea9ba40cecbe42bcee50931c0e299, type: 3}
    m_GameObject: {fileID: 0}
    m_AnimationSpeed: 1
    m_PerlinScale: 0.5
    m_RuleTransform: 0
    m_Output: 1
    m_ColliderType: 1
    m_RandomTransform: 0
  - m_Neighbors: 0000000002000000000000000100000001000000000000000100000000000000
    m_Sprites:
    - {fileID: 8970537585682744296, guid: 782ea9ba40cecbe42bcee50931c0e299, type: 3}
    - {fileID: -1423759378881856293, guid: 782ea9ba40cecbe42bcee50931c0e299, type: 3}
    - {fileID: 252357338776834768, guid: 782ea9ba40cecbe42bcee50931c0e299, type: 3}
    m_GameObject: {fileID: 0}
    m_AnimationSpeed: 1
    m_PerlinScale: 0.5
    m_RuleTransform: 0
    m_Output: 1
    m_ColliderType: 1
    m_RandomTransform: 0
  - m_Neighbors: 0000000002000000000000000100000002000000000000000100000000000000
    m_Sprites:
    - {fileID: -681637462400052395, guid: 782ea9ba40cecbe42bcee50931c0e299, type: 3}
    - {fileID: -5059915306365492021, guid: 782ea9ba40cecbe42bcee50931c0e299, type: 3}
    - {fileID: 1396723278438627707, guid: 782ea9ba40cecbe42bcee50931c0e299, type: 3}
    m_GameObject: {fileID: 0}
    m_AnimationSpeed: 1
    m_PerlinScale: 0.5
    m_RuleTransform: 0
    m_Output: 1
    m_ColliderType: 1
    m_RandomTransform: 0
  - m_Neighbors: 0000000001000000000000000200000001000000000000000100000000000000
    m_Sprites:
    - {fileID: 3959098168706432059, guid: 782ea9ba40cecbe42bcee50931c0e299, type: 3}
    - {fileID: -1239463618190082759, guid: 782ea9ba40cecbe42bcee50931c0e299, type: 3}
    - {fileID: 8631196979700412378, guid: 782ea9ba40cecbe42bcee50931c0e299, type: 3}
    m_GameObject: {fileID: 0}
    m_AnimationSpeed: 1
    m_PerlinScale: 0.5
    m_RuleTransform: 0
    m_Output: 1
    m_ColliderType: 1
    m_RandomTransform: 0
  - m_Neighbors: 0000000001000000000000000100000002000000000000000100000000000000
    m_Sprites:
    - {fileID: 5422282690286972601, guid: 782ea9ba40cecbe42bcee50931c0e299, type: 3}
    - {fileID: -6403138225470703490, guid: 782ea9ba40cecbe42bcee50931c0e299, type: 3}
    - {fileID: 2833136803270048464, guid: 782ea9ba40cecbe42bcee50931c0e299, type: 3}
    m_GameObject: {fileID: 0}
    m_AnimationSpeed: 1
    m_PerlinScale: 0.5
    m_RuleTransform: 0
    m_Output: 1
    m_ColliderType: 1
    m_RandomTransform: 0
  - m_Neighbors: 0000000001000000000000000200000001000000000000000200000000000000
    m_Sprites:
    - {fileID: -2594440129216972303, guid: 782ea9ba40cecbe42bcee50931c0e299, type: 3}
    - {fileID: -1338997869387486637, guid: 782ea9ba40cecbe42bcee50931c0e299, type: 3}
    - {fileID: -6118818873656705240, guid: 782ea9ba40cecbe42bcee50931c0e299, type: 3}
    m_GameObject: {fileID: 0}
    m_AnimationSpeed: 1
    m_PerlinScale: 0.5
    m_RuleTransform: 0
    m_Output: 1
    m_ColliderType: 1
    m_RandomTransform: 0
  - m_Neighbors: 0000000001000000000000000100000001000000000000000200000000000000
    m_Sprites:
    - {fileID: 6559712047565843312, guid: 782ea9ba40cecbe42bcee50931c0e299, type: 3}
    - {fileID: 280200882923848223, guid: 782ea9ba40cecbe42bcee50931c0e299, type: 3}
    - {fileID: 2356350607084437061, guid: 782ea9ba40cecbe42bcee50931c0e299, type: 3}
    m_GameObject: {fileID: 0}
    m_AnimationSpeed: 1
    m_PerlinScale: 0.5
    m_RuleTransform: 0
    m_Output: 1
    m_ColliderType: 1
    m_RandomTransform: 0
  - m_Neighbors: 0000000001000000000000000100000002000000000000000200000000000000
    m_Sprites:
    - {fileID: 3622896409497085128, guid: 782ea9ba40cecbe42bcee50931c0e299, type: 3}
    - {fileID: -6695110387821055533, guid: 782ea9ba40cecbe42bcee50931c0e299, type: 3}
    - {fileID: -4983971857647886898, guid: 782ea9ba40cecbe42bcee50931c0e299, type: 3}
    m_GameObject: {fileID: 0}
    m_AnimationSpeed: 1
    m_PerlinScale: 0.5
    m_RuleTransform: 0
    m_Output: 1
    m_ColliderType: 1
    m_RandomTransform: 0
  - m_Neighbors: 0000000000000000000000000000000001000000000000000100000002000000
    m_Sprites:
    - {fileID: 3655876242706587419, guid: 782ea9ba40cecbe42bcee50931c0e299, type: 3}
    - {fileID: 0}
    - {fileID: 0}
    m_GameObject: {fileID: 0}
    m_AnimationSpeed: 1
    m_PerlinScale: 0.5
    m_RuleTransform: 0
    m_Output: 0
    m_ColliderType: 1
    m_RandomTransform: 0
  - m_Neighbors: 0000000000000000000000000100000000000000020000000100000000000000
    m_Sprites:
    - {fileID: 412692247664910977, guid: 782ea9ba40cecbe42bcee50931c0e299, type: 3}
    - {fileID: 0}
    - {fileID: 0}
    m_GameObject: {fileID: 0}
    m_AnimationSpeed: 1
    m_PerlinScale: 0.5
    m_RuleTransform: 0
    m_Output: 0
    m_ColliderType: 1
    m_RandomTransform: 0
  - m_Neighbors: 0000000001000000020000000000000001000000000000000000000000000000
    m_Sprites:
    - {fileID: 1151236225478881547, guid: 782ea9ba40cecbe42bcee50931c0e299, type: 3}
    - {fileID: 0}
    - {fileID: 0}
    m_GameObject: {fileID: 0}
    m_AnimationSpeed: 1
    m_PerlinScale: 0.5
    m_RuleTransform: 0
    m_Output: 0
    m_ColliderType: 1
    m_RandomTransform: 0
  - m_Neighbors: 0200000001000000000000000100000000000000000000000000000000000000
    m_Sprites:
    - {fileID: -3102786695576175338, guid: 782ea9ba40cecbe42bcee50931c0e299, type: 3}
    - {fileID: 0}
    - {fileID: 0}
    m_GameObject: {fileID: 0}
    m_AnimationSpeed: 1
    m_PerlinScale: 0.5
    m_RuleTransform: 0
    m_Output: 0
    m_ColliderType: 1
    m_RandomTransform: 0
  - m_Neighbors: 0000000001000000000000000100000001000000000000000100000000000000
    m_Sprites:
    - {fileID: -1557436255206575133, guid: 782ea9ba40cecbe42bcee50931c0e299, type: 3}
    - {fileID: 3769198796251135230, guid: 782ea9ba40cecbe42bcee50931c0e299, type: 3}
    - {fileID: 330394784657200953, guid: 782ea9ba40cecbe42bcee50931c0e299, type: 3}
    m_GameObject: {fileID: 0}
    m_AnimationSpeed: 1
    m_PerlinScale: 0.5
    m_RuleTransform: 0
    m_Output: 1
    m_ColliderType: 1
    m_RandomTransform: 0
