%YAML 1.1
%TAG !u! tag:unity3d.com,2011:
--- !u!114 &11400000
MonoBehaviour:
  m_ObjectHideFlags: 0
  m_CorrespondingSourceObject: {fileID: 0}
  m_PrefabInstance: {fileID: 0}
  m_PrefabAsset: {fileID: 0}
  m_GameObject: {fileID: 0}
  m_Enabled: 1
  m_EditorHideFlags: 0
  m_Script: {fileID: 11500000, guid: 9d1514134bc4fbd41bb739b1b9a49231, type: 3}
  m_Name: LightLeavesBlockTile
  m_EditorClassIdentifier: 
  m_DefaultSprite: {fileID: 8363922118012223186, guid: c786691139b026440a31f17174ddc6ec,
    type: 3}
  m_DefaultGameObject: {fileID: 0}
  m_DefaultColliderType: 2
  m_TilingRules:
  - m_Neighbors: 0000000002000000000000000200000001000000000000000100000000000000
    m_Sprites:
    - {fileID: -1138252946494611588, guid: c786691139b026440a31f17174ddc6ec, type: 3}
    - {fileID: 2331107982491064520, guid: c786691139b026440a31f17174ddc6ec, type: 3}
    m_GameObject: {fileID: 0}
    m_AnimationSpeed: 1
    m_PerlinScale: 0.5
    m_RuleTransform: 0
    m_Output: 1
    m_ColliderType: 1
    m_RandomTransform: 0
  - m_Neighbors: 0000000002000000000000000100000001000000000000000100000000000000
    m_Sprites:
    - {fileID: 8363922118012223186, guid: c786691139b026440a31f17174ddc6ec, type: 3}
    - {fileID: -8460061601634538619, guid: c786691139b026440a31f17174ddc6ec, type: 3}
    m_GameObject: {fileID: 0}
    m_AnimationSpeed: 1
    m_PerlinScale: 0.5
    m_RuleTransform: 0
    m_Output: 1
    m_ColliderType: 1
    m_RandomTransform: 0
  - m_Neighbors: 0000000002000000000000000100000002000000000000000100000000000000
    m_Sprites:
    - {fileID: -4279122545248941370, guid: c786691139b026440a31f17174ddc6ec, type: 3}
    - {fileID: 5365478722209361070, guid: c786691139b026440a31f17174ddc6ec, type: 3}
    m_GameObject: {fileID: 0}
    m_AnimationSpeed: 1
    m_PerlinScale: 0.5
    m_RuleTransform: 0
    m_Output: 1
    m_ColliderType: 1
    m_RandomTransform: 0
  - m_Neighbors: 0000000001000000000000000200000001000000000000000100000000000000
    m_Sprites:
    - {fileID: -6704585800158796577, guid: c786691139b026440a31f17174ddc6ec, type: 3}
    - {fileID: -9034906728471946004, guid: c786691139b026440a31f17174ddc6ec, type: 3}
    m_GameObject: {fileID: 0}
    m_AnimationSpeed: 1
    m_PerlinScale: 0.5
    m_RuleTransform: 0
    m_Output: 1
    m_ColliderType: 1
    m_RandomTransform: 0
  - m_Neighbors: 0000000001000000000000000100000002000000000000000100000000000000
    m_Sprites:
    - {fileID: 1519169069830148436, guid: c786691139b026440a31f17174ddc6ec, type: 3}
    - {fileID: -5354905339685397592, guid: c786691139b026440a31f17174ddc6ec, type: 3}
    m_GameObject: {fileID: 0}
    m_AnimationSpeed: 1
    m_PerlinScale: 0.5
    m_RuleTransform: 0
    m_Output: 1
    m_ColliderType: 1
    m_RandomTransform: 0
  - m_Neighbors: 0000000001000000000000000200000001000000000000000200000000000000
    m_Sprites:
    - {fileID: -6910553740010457256, guid: c786691139b026440a31f17174ddc6ec, type: 3}
    - {fileID: 5164632152826119381, guid: c786691139b026440a31f17174ddc6ec, type: 3}
    m_GameObject: {fileID: 0}
    m_AnimationSpeed: 1
    m_PerlinScale: 0.5
    m_RuleTransform: 0
    m_Output: 1
    m_ColliderType: 1
    m_RandomTransform: 0
  - m_Neighbors: 0000000001000000000000000100000001000000000000000200000000000000
    m_Sprites:
    - {fileID: 5814926291525950015, guid: c786691139b026440a31f17174ddc6ec, type: 3}
    - {fileID: -5824519886998256081, guid: c786691139b026440a31f17174ddc6ec, type: 3}
    m_GameObject: {fileID: 0}
    m_AnimationSpeed: 1
    m_PerlinScale: 0.5
    m_RuleTransform: 0
    m_Output: 1
    m_ColliderType: 1
    m_RandomTransform: 0
  - m_Neighbors: 0000000001000000000000000100000002000000000000000200000000000000
    m_Sprites:
    - {fileID: -3692399686968619298, guid: c786691139b026440a31f17174ddc6ec, type: 3}
    - {fileID: 3711663532915607954, guid: c786691139b026440a31f17174ddc6ec, type: 3}
    m_GameObject: {fileID: 0}
    m_AnimationSpeed: 1
    m_PerlinScale: 0.5
    m_RuleTransform: 0
    m_Output: 1
    m_ColliderType: 1
    m_RandomTransform: 0
  - m_Neighbors: 0000000000000000000000000000000001000000000000000100000002000000
    m_Sprites:
    - {fileID: -1526579152986956886, guid: c786691139b026440a31f17174ddc6ec, type: 3}
    - {fileID: 0}
    - {fileID: 0}
    m_GameObject: {fileID: 0}
    m_AnimationSpeed: 1
    m_PerlinScale: 0.5
    m_RuleTransform: 0
    m_Output: 0
    m_ColliderType: 1
    m_RandomTransform: 0
  - m_Neighbors: 0000000000000000000000000100000000000000020000000100000000000000
    m_Sprites:
    - {fileID: 2438589414164264260, guid: c786691139b026440a31f17174ddc6ec, type: 3}
    - {fileID: 0}
    - {fileID: 0}
    m_GameObject: {fileID: 0}
    m_AnimationSpeed: 1
    m_PerlinScale: 0.5
    m_RuleTransform: 0
    m_Output: 0
    m_ColliderType: 1
    m_RandomTransform: 0
  - m_Neighbors: 0000000001000000020000000000000001000000000000000000000000000000
    m_Sprites:
    - {fileID: -6219288384874403804, guid: c786691139b026440a31f17174ddc6ec, type: 3}
    - {fileID: 0}
    - {fileID: 0}
    m_GameObject: {fileID: 0}
    m_AnimationSpeed: 1
    m_PerlinScale: 0.5
    m_RuleTransform: 0
    m_Output: 0
    m_ColliderType: 1
    m_RandomTransform: 0
  - m_Neighbors: 0200000001000000000000000100000000000000000000000000000000000000
    m_Sprites:
    - {fileID: -1756461264654701954, guid: c786691139b026440a31f17174ddc6ec, type: 3}
    - {fileID: 0}
    - {fileID: 0}
    m_GameObject: {fileID: 0}
    m_AnimationSpeed: 1
    m_PerlinScale: 0.5
    m_RuleTransform: 0
    m_Output: 0
    m_ColliderType: 1
    m_RandomTransform: 0
  - m_Neighbors: 0000000001000000000000000100000001000000000000000100000000000000
    m_Sprites:
    - {fileID: 8274227206318814888, guid: c786691139b026440a31f17174ddc6ec, type: 3}
    - {fileID: 1404987571480860495, guid: c786691139b026440a31f17174ddc6ec, type: 3}
    m_GameObject: {fileID: 0}
    m_AnimationSpeed: 1
    m_PerlinScale: 0.5
    m_RuleTransform: 0
    m_Output: 1
    m_ColliderType: 1
    m_RandomTransform: 0
