%YAML 1.1
%TAG !u! tag:unity3d.com,2011:
--- !u!114 &11400000
MonoBehaviour:
  m_ObjectHideFlags: 0
  m_CorrespondingSourceObject: {fileID: 0}
  m_PrefabInstance: {fileID: 0}
  m_PrefabAsset: {fileID: 0}
  m_GameObject: {fileID: 0}
  m_Enabled: 1
  m_EditorHideFlags: 0
  m_Script: {fileID: 11500000, guid: 9d1514134bc4fbd41bb739b1b9a49231, type: 3}
  m_Name: NewLightLeavesBlockTile
  m_EditorClassIdentifier: 
  m_DefaultSprite: {fileID: -976490719507224351, guid: 897d50e0e624c6243942d8d7dd25beaf,
    type: 3}
  m_DefaultGameObject: {fileID: 0}
  m_DefaultColliderType: 2
  m_TilingRules:
  - m_Neighbors: 0000000002000000000000000200000001000000000000000100000000000000
    m_Sprites:
    - {fileID: -1092076649383935961, guid: 897d50e0e624c6243942d8d7dd25beaf, type: 3}
    - {fileID: 4239971917418895204, guid: 897d50e0e624c6243942d8d7dd25beaf, type: 3}
    m_GameObject: {fileID: 0}
    m_AnimationSpeed: 1
    m_PerlinScale: 0.5
    m_RuleTransform: 0
    m_Output: 1
    m_ColliderType: 1
    m_RandomTransform: 0
  - m_Neighbors: 0000000002000000000000000100000001000000000000000100000000000000
    m_Sprites:
    - {fileID: -976490719507224351, guid: 897d50e0e624c6243942d8d7dd25beaf, type: 3}
    - {fileID: 9197141592237887966, guid: 897d50e0e624c6243942d8d7dd25beaf, type: 3}
    m_GameObject: {fileID: 0}
    m_AnimationSpeed: 1
    m_PerlinScale: 0.5
    m_RuleTransform: 0
    m_Output: 1
    m_ColliderType: 1
    m_RandomTransform: 0
  - m_Neighbors: 0000000002000000000000000100000002000000000000000100000000000000
    m_Sprites:
    - {fileID: -617879829326375069, guid: 897d50e0e624c6243942d8d7dd25beaf, type: 3}
    - {fileID: -1853655547583113866, guid: 897d50e0e624c6243942d8d7dd25beaf, type: 3}
    m_GameObject: {fileID: 0}
    m_AnimationSpeed: 1
    m_PerlinScale: 0.5
    m_RuleTransform: 0
    m_Output: 1
    m_ColliderType: 1
    m_RandomTransform: 0
  - m_Neighbors: 0000000001000000000000000200000001000000000000000100000000000000
    m_Sprites:
    - {fileID: 3592951465299098343, guid: 897d50e0e624c6243942d8d7dd25beaf, type: 3}
    - {fileID: 8473139327208112949, guid: 897d50e0e624c6243942d8d7dd25beaf, type: 3}
    m_GameObject: {fileID: 0}
    m_AnimationSpeed: 1
    m_PerlinScale: 0.5
    m_RuleTransform: 0
    m_Output: 1
    m_ColliderType: 1
    m_RandomTransform: 0
  - m_Neighbors: 0000000001000000000000000100000002000000000000000100000000000000
    m_Sprites:
    - {fileID: -2548140553310638509, guid: 897d50e0e624c6243942d8d7dd25beaf, type: 3}
    - {fileID: 7145512497108989524, guid: 897d50e0e624c6243942d8d7dd25beaf, type: 3}
    m_GameObject: {fileID: 0}
    m_AnimationSpeed: 1
    m_PerlinScale: 0.5
    m_RuleTransform: 0
    m_Output: 1
    m_ColliderType: 1
    m_RandomTransform: 0
  - m_Neighbors: 0000000001000000000000000200000001000000000000000200000000000000
    m_Sprites:
    - {fileID: 8868457597853538833, guid: 897d50e0e624c6243942d8d7dd25beaf, type: 3}
    - {fileID: -981681769853954167, guid: 897d50e0e624c6243942d8d7dd25beaf, type: 3}
    m_GameObject: {fileID: 0}
    m_AnimationSpeed: 1
    m_PerlinScale: 0.5
    m_RuleTransform: 0
    m_Output: 1
    m_ColliderType: 1
    m_RandomTransform: 0
  - m_Neighbors: 0000000001000000000000000100000001000000000000000200000000000000
    m_Sprites:
    - {fileID: 8437982522401707972, guid: 897d50e0e624c6243942d8d7dd25beaf, type: 3}
    - {fileID: -3048373704343560786, guid: 897d50e0e624c6243942d8d7dd25beaf, type: 3}
    m_GameObject: {fileID: 0}
    m_AnimationSpeed: 1
    m_PerlinScale: 0.5
    m_RuleTransform: 0
    m_Output: 1
    m_ColliderType: 1
    m_RandomTransform: 0
  - m_Neighbors: 0000000001000000000000000100000002000000000000000200000000000000
    m_Sprites:
    - {fileID: 6066963937094390420, guid: 897d50e0e624c6243942d8d7dd25beaf, type: 3}
    - {fileID: -6569001925997302854, guid: 897d50e0e624c6243942d8d7dd25beaf, type: 3}
    m_GameObject: {fileID: 0}
    m_AnimationSpeed: 1
    m_PerlinScale: 0.5
    m_RuleTransform: 0
    m_Output: 1
    m_ColliderType: 1
    m_RandomTransform: 0
  - m_Neighbors: 0000000000000000000000000000000001000000000000000100000002000000
    m_Sprites:
    - {fileID: -2688136312074484517, guid: 897d50e0e624c6243942d8d7dd25beaf, type: 3}
    - {fileID: 0}
    - {fileID: 0}
    m_GameObject: {fileID: 0}
    m_AnimationSpeed: 1
    m_PerlinScale: 0.5
    m_RuleTransform: 0
    m_Output: 0
    m_ColliderType: 1
    m_RandomTransform: 0
  - m_Neighbors: 0000000000000000000000000100000000000000020000000100000000000000
    m_Sprites:
    - {fileID: -4834588540109380398, guid: 897d50e0e624c6243942d8d7dd25beaf, type: 3}
    - {fileID: 0}
    - {fileID: 0}
    m_GameObject: {fileID: 0}
    m_AnimationSpeed: 1
    m_PerlinScale: 0.5
    m_RuleTransform: 0
    m_Output: 0
    m_ColliderType: 1
    m_RandomTransform: 0
  - m_Neighbors: 0000000001000000020000000000000001000000000000000000000000000000
    m_Sprites:
    - {fileID: -7287459898953650835, guid: 897d50e0e624c6243942d8d7dd25beaf, type: 3}
    - {fileID: 0}
    - {fileID: 0}
    m_GameObject: {fileID: 0}
    m_AnimationSpeed: 1
    m_PerlinScale: 0.5
    m_RuleTransform: 0
    m_Output: 0
    m_ColliderType: 1
    m_RandomTransform: 0
  - m_Neighbors: 0200000001000000000000000100000000000000000000000000000000000000
    m_Sprites:
    - {fileID: -7821029490949031782, guid: 897d50e0e624c6243942d8d7dd25beaf, type: 3}
    - {fileID: 0}
    - {fileID: 0}
    m_GameObject: {fileID: 0}
    m_AnimationSpeed: 1
    m_PerlinScale: 0.5
    m_RuleTransform: 0
    m_Output: 0
    m_ColliderType: 1
    m_RandomTransform: 0
  - m_Neighbors: 0000000001000000000000000100000001000000000000000100000000000000
    m_Sprites:
    - {fileID: 5778688378430857146, guid: 897d50e0e624c6243942d8d7dd25beaf, type: 3}
    - {fileID: -6966638058288561927, guid: 897d50e0e624c6243942d8d7dd25beaf, type: 3}
    m_GameObject: {fileID: 0}
    m_AnimationSpeed: 1
    m_PerlinScale: 0.5
    m_RuleTransform: 0
    m_Output: 1
    m_ColliderType: 1
    m_RandomTransform: 0
