%YAML 1.1
%TAG !u! tag:unity3d.com,2011:
--- !u!114 &11400000
MonoBehaviour:
  m_ObjectHideFlags: 0
  m_CorrespondingSourceObject: {fileID: 0}
  m_PrefabInstance: {fileID: 0}
  m_PrefabAsset: {fileID: 0}
  m_GameObject: {fileID: 0}
  m_Enabled: 1
  m_EditorHideFlags: 0
  m_Script: {fileID: 11500000, guid: 9d1514134bc4fbd41bb739b1b9a49231, type: 3}
  m_Name: RocksBlockTile
  m_EditorClassIdentifier: 
  m_DefaultSprite: {fileID: 6971293739017007224, guid: 7d9750bb859213746b93152eeb7fb137,
    type: 3}
  m_DefaultGameObject: {fileID: 0}
  m_DefaultColliderType: 2
  m_TilingRules:
  - m_Neighbors: 0000000002000000000000000200000001000000000000000100000000000000
    m_Sprites:
    - {fileID: -5302940953094042009, guid: 7d9750bb859213746b93152eeb7fb137, type: 3}
    - {fileID: 5039097528084059926, guid: 7d9750bb859213746b93152eeb7fb137, type: 3}
    m_GameObject: {fileID: 0}
    m_AnimationSpeed: 1
    m_PerlinScale: 0.5
    m_RuleTransform: 0
    m_Output: 1
    m_ColliderType: 1
    m_RandomTransform: 0
  - m_Neighbors: 0000000002000000000000000100000001000000000000000100000000000000
    m_Sprites:
    - {fileID: 6971293739017007224, guid: 7d9750bb859213746b93152eeb7fb137, type: 3}
    - {fileID: 7891211733889649104, guid: 7d9750bb859213746b93152eeb7fb137, type: 3}
    m_GameObject: {fileID: 0}
    m_AnimationSpeed: 1
    m_PerlinScale: 0.5
    m_RuleTransform: 0
    m_Output: 1
    m_ColliderType: 1
    m_RandomTransform: 0
  - m_Neighbors: 0000000002000000000000000100000002000000000000000100000000000000
    m_Sprites:
    - {fileID: -513767890920760354, guid: 7d9750bb859213746b93152eeb7fb137, type: 3}
    - {fileID: -8837957183683844293, guid: 7d9750bb859213746b93152eeb7fb137, type: 3}
    m_GameObject: {fileID: 0}
    m_AnimationSpeed: 1
    m_PerlinScale: 0.5
    m_RuleTransform: 0
    m_Output: 1
    m_ColliderType: 1
    m_RandomTransform: 0
  - m_Neighbors: 0000000001000000000000000200000001000000000000000100000000000000
    m_Sprites:
    - {fileID: 8162919313142854523, guid: 7d9750bb859213746b93152eeb7fb137, type: 3}
    - {fileID: -1456616523584683880, guid: 7d9750bb859213746b93152eeb7fb137, type: 3}
    m_GameObject: {fileID: 0}
    m_AnimationSpeed: 1
    m_PerlinScale: 0.5
    m_RuleTransform: 0
    m_Output: 1
    m_ColliderType: 1
    m_RandomTransform: 0
  - m_Neighbors: 0000000001000000000000000100000002000000000000000100000000000000
    m_Sprites:
    - {fileID: -5725306606229756907, guid: 7d9750bb859213746b93152eeb7fb137, type: 3}
    - {fileID: -4272804170518552536, guid: 7d9750bb859213746b93152eeb7fb137, type: 3}
    m_GameObject: {fileID: 0}
    m_AnimationSpeed: 1
    m_PerlinScale: 0.5
    m_RuleTransform: 0
    m_Output: 1
    m_ColliderType: 1
    m_RandomTransform: 0
  - m_Neighbors: 0000000001000000000000000200000001000000000000000200000000000000
    m_Sprites:
    - {fileID: 8512309372734217499, guid: 7d9750bb859213746b93152eeb7fb137, type: 3}
    - {fileID: 2927672211625881061, guid: 7d9750bb859213746b93152eeb7fb137, type: 3}
    m_GameObject: {fileID: 0}
    m_AnimationSpeed: 1
    m_PerlinScale: 0.5
    m_RuleTransform: 0
    m_Output: 1
    m_ColliderType: 1
    m_RandomTransform: 0
  - m_Neighbors: 0000000001000000000000000100000001000000000000000200000000000000
    m_Sprites:
    - {fileID: 5344103615788941843, guid: 7d9750bb859213746b93152eeb7fb137, type: 3}
    - {fileID: -1185389707488399870, guid: 7d9750bb859213746b93152eeb7fb137, type: 3}
    m_GameObject: {fileID: 0}
    m_AnimationSpeed: 1
    m_PerlinScale: 0.5
    m_RuleTransform: 0
    m_Output: 1
    m_ColliderType: 1
    m_RandomTransform: 0
  - m_Neighbors: 0000000001000000000000000100000002000000000000000200000000000000
    m_Sprites:
    - {fileID: 2620038021919776046, guid: 7d9750bb859213746b93152eeb7fb137, type: 3}
    - {fileID: 1084335056916644550, guid: 7d9750bb859213746b93152eeb7fb137, type: 3}
    m_GameObject: {fileID: 0}
    m_AnimationSpeed: 1
    m_PerlinScale: 0.5
    m_RuleTransform: 0
    m_Output: 1
    m_ColliderType: 1
    m_RandomTransform: 0
  - m_Neighbors: 0000000000000000000000000000000001000000000000000100000002000000
    m_Sprites:
    - {fileID: 990398532447231613, guid: 7d9750bb859213746b93152eeb7fb137, type: 3}
    - {fileID: 0}
    - {fileID: 0}
    m_GameObject: {fileID: 0}
    m_AnimationSpeed: 1
    m_PerlinScale: 0.5
    m_RuleTransform: 0
    m_Output: 0
    m_ColliderType: 1
    m_RandomTransform: 0
  - m_Neighbors: 0000000000000000000000000100000000000000020000000100000000000000
    m_Sprites:
    - {fileID: 8775124619492172728, guid: 7d9750bb859213746b93152eeb7fb137, type: 3}
    - {fileID: 0}
    - {fileID: 0}
    m_GameObject: {fileID: 0}
    m_AnimationSpeed: 1
    m_PerlinScale: 0.5
    m_RuleTransform: 0
    m_Output: 0
    m_ColliderType: 1
    m_RandomTransform: 0
  - m_Neighbors: 0000000001000000020000000000000001000000000000000000000000000000
    m_Sprites:
    - {fileID: -6540719455189049261, guid: 7d9750bb859213746b93152eeb7fb137, type: 3}
    - {fileID: 0}
    - {fileID: 0}
    m_GameObject: {fileID: 0}
    m_AnimationSpeed: 1
    m_PerlinScale: 0.5
    m_RuleTransform: 0
    m_Output: 0
    m_ColliderType: 1
    m_RandomTransform: 0
  - m_Neighbors: 0200000001000000000000000100000000000000000000000000000000000000
    m_Sprites:
    - {fileID: -8085049731644902895, guid: 7d9750bb859213746b93152eeb7fb137, type: 3}
    - {fileID: 0}
    - {fileID: 0}
    m_GameObject: {fileID: 0}
    m_AnimationSpeed: 1
    m_PerlinScale: 0.5
    m_RuleTransform: 0
    m_Output: 0
    m_ColliderType: 1
    m_RandomTransform: 0
  - m_Neighbors: 0000000001000000000000000100000001000000000000000100000000000000
    m_Sprites:
    - {fileID: 2022564334742148340, guid: 7d9750bb859213746b93152eeb7fb137, type: 3}
    - {fileID: -641415901884725915, guid: 7d9750bb859213746b93152eeb7fb137, type: 3}
    m_GameObject: {fileID: 0}
    m_AnimationSpeed: 1
    m_PerlinScale: 0.5
    m_RuleTransform: 0
    m_Output: 1
    m_ColliderType: 1
    m_RandomTransform: 0
