%YAML 1.1
%TAG !u! tag:unity3d.com,2011:
--- !u!1 &8280066507885478786
GameObject:
  m_ObjectHideFlags: 0
  m_CorrespondingSourceObject: {fileID: 0}
  m_PrefabInstance: {fileID: 0}
  m_PrefabAsset: {fileID: 0}
  serializedVersion: 6
  m_Component:
  - component: {fileID: 8280066507885478788}
  - component: {fileID: 8280066507885478787}
  m_Layer: 0
  m_Name: MapManager
  m_TagString: Untagged
  m_Icon: {fileID: 0}
  m_NavMeshLayer: 0
  m_StaticEditorFlags: 0
  m_IsActive: 1
--- !u!4 &8280066507885478788
Transform:
  m_ObjectHideFlags: 0
  m_CorrespondingSourceObject: {fileID: 0}
  m_PrefabInstance: {fileID: 0}
  m_PrefabAsset: {fileID: 0}
  m_GameObject: {fileID: 8280066507885478786}
  m_LocalRotation: {x: 0, y: 0, z: 0, w: 1}
  m_LocalPosition: {x: 0, y: 0, z: 0}
  m_LocalScale: {x: 1, y: 1, z: 1}
  m_Children:
  - {fileID: 1682974974564507424}
  m_Father: {fileID: 0}
  m_RootOrder: 0
  m_LocalEulerAnglesHint: {x: 0, y: 0, z: 0}
--- !u!114 &8280066507885478787
MonoBehaviour:
  m_ObjectHideFlags: 0
  m_CorrespondingSourceObject: {fileID: 0}
  m_PrefabInstance: {fileID: 0}
  m_PrefabAsset: {fileID: 0}
  m_GameObject: {fileID: 8280066507885478786}
  m_Enabled: 1
  m_EditorHideFlags: 0
  m_Script: {fileID: 11500000, guid: 66d8f82cc89353942882bf270ea7ae1b, type: 3}
  m_Name: 
  m_EditorClassIdentifier: 
  mapGenerator: {fileID: 1682974974564507425}
  highlightTile: {fileID: 11400000, guid: 346d40452471dc54ba12d6c7e67a1920, type: 2}
  highlightMap: {fileID: 0}
  backgroundMap: {fileID: 0}
  farBackgroundMap: {fileID: 0}
  blocksInfo:
  - tile: {fileID: 11400000, guid: d630970d16a2b9a42a0984b8a61b334d, type: 2}
    durabilityStrength: 50
    probabilityToPlaceBackgroundBlock: 0.015
    backgroundBlocks:
    - {fileID: 11400000, guid: 1b2a0a000f3fd194894e1821e651b8f1, type: 2}
  - tile: {fileID: 11400000, guid: 415b280abfa218c4795fe91ced901ca1, type: 2}
    durabilityStrength: 50
    probabilityToPlaceBackgroundBlock: 0.02
    backgroundBlocks:
    - {fileID: 11400000, guid: 33ae9acd3ad14cd47be6cff2406f021f, type: 2}
  - tile: {fileID: 11400000, guid: ed8fa5db5a5be9f4bbac39199fc2cd6e, type: 2}
    durabilityStrength: 50
    probabilityToPlaceBackgroundBlock: 0.015
    backgroundBlocks:
    - {fileID: 11400000, guid: 4fb3897cbb9bbbc40a46b21a47093919, type: 2}
  - tile: {fileID: 11400000, guid: 862335d29d9c35f41bd180725a3249fa, type: 2}
    durabilityStrength: 50
    probabilityToPlaceBackgroundBlock: 0.03
    backgroundBlocks:
    - {fileID: 11400000, guid: a3780b7c3d75ee74c88545d480738d44, type: 2}
  - tile: {fileID: 11400000, guid: dec89a759e6110f489db9d29d940682c, type: 2}
    durabilityStrength: 50
    probabilityToPlaceBackgroundBlock: 0.02
    backgroundBlocks:
    - {fileID: 11400000, guid: 4fb3897cbb9bbbc40a46b21a47093919, type: 2}
  backgroundTilesForEmptySpaces: []
  globalBackgroundTiles: []
  globalFarBackgroundTiles:
  - tile: {fileID: 11400000, guid: 12232cc541eac09478c27da64fe9d655, type: 2}
    probabilityToPlace: 0
  grid: {fileID: 0}
  minimapUncover: {fileID: 0}
  playerCamera: {fileID: 0}
  selectionMap: {fileID: 0}
  sizeOfSquareSelectionTiles: 2
  selectionTileModel: {fileID: 11400000, guid: 823af85de11980d41aaeb8fd9a040f81, type: 2}
  cinemachineConfinner: {fileID: 0}
--- !u!1001 &8280066509297243336
PrefabInstance:
  m_ObjectHideFlags: 0
  serializedVersion: 2
  m_Modification:
    m_TransformParent: {fileID: 8280066507885478788}
    m_Modifications:
    - target: {fileID: 7328364074135145454, guid: f396edbece2e8524ca37bf949819ecc8,
        type: 3}
      propertyPath: m_Name
      value: MapGenerator
      objectReference: {fileID: 0}
    - target: {fileID: 7328364074135145448, guid: f396edbece2e8524ca37bf949819ecc8,
        type: 3}
      propertyPath: m_LocalPosition.x
      value: 0
      objectReference: {fileID: 0}
    - target: {fileID: 7328364074135145448, guid: f396edbece2e8524ca37bf949819ecc8,
        type: 3}
      propertyPath: m_LocalPosition.y
      value: 0
      objectReference: {fileID: 0}
    - target: {fileID: 7328364074135145448, guid: f396edbece2e8524ca37bf949819ecc8,
        type: 3}
      propertyPath: m_LocalPosition.z
      value: 0
      objectReference: {fileID: 0}
    - target: {fileID: 7328364074135145448, guid: f396edbece2e8524ca37bf949819ecc8,
        type: 3}
      propertyPath: m_LocalRotation.x
      value: -0
      objectReference: {fileID: 0}
    - target: {fileID: 7328364074135145448, guid: f396edbece2e8524ca37bf949819ecc8,
        type: 3}
      propertyPath: m_LocalRotation.y
      value: -0
      objectReference: {fileID: 0}
    - target: {fileID: 7328364074135145448, guid: f396edbece2e8524ca37bf949819ecc8,
        type: 3}
      propertyPath: m_LocalRotation.z
      value: -0
      objectReference: {fileID: 0}
    - target: {fileID: 7328364074135145448, guid: f396edbece2e8524ca37bf949819ecc8,
        type: 3}
      propertyPath: m_LocalRotation.w
      value: 1
      objectReference: {fileID: 0}
    - target: {fileID: 7328364074135145448, guid: f396edbece2e8524ca37bf949819ecc8,
        type: 3}
      propertyPath: m_RootOrder
      value: 0
      objectReference: {fileID: 0}
    - target: {fileID: 7328364074135145448, guid: f396edbece2e8524ca37bf949819ecc8,
        type: 3}
      propertyPath: m_LocalEulerAnglesHint.x
      value: 0
      objectReference: {fileID: 0}
    - target: {fileID: 7328364074135145448, guid: f396edbece2e8524ca37bf949819ecc8,
        type: 3}
      propertyPath: m_LocalEulerAnglesHint.y
      value: 0
      objectReference: {fileID: 0}
    - target: {fileID: 7328364074135145448, guid: f396edbece2e8524ca37bf949819ecc8,
        type: 3}
      propertyPath: m_LocalEulerAnglesHint.z
      value: 0
      objectReference: {fileID: 0}
    - target: {fileID: 7328364074135145449, guid: f396edbece2e8524ca37bf949819ecc8,
        type: 3}
      propertyPath: blocksSettings.Array.size
      value: 4
      objectReference: {fileID: 0}
    - target: {fileID: 7328364074135145449, guid: f396edbece2e8524ca37bf949819ecc8,
        type: 3}
      propertyPath: randomFillPercent
      value: 60
      objectReference: {fileID: 0}
    - target: {fileID: 7328364074135145449, guid: f396edbece2e8524ca37bf949819ecc8,
        type: 3}
      propertyPath: width
      value: 200
      objectReference: {fileID: 0}
    - target: {fileID: 7328364074135145449, guid: f396edbece2e8524ca37bf949819ecc8,
        type: 3}
      propertyPath: height
      value: 90
      objectReference: {fileID: 0}
    - target: {fileID: 7328364074135145449, guid: f396edbece2e8524ca37bf949819ecc8,
        type: 3}
      propertyPath: numberOfSmoothIterations
      value: 5
      objectReference: {fileID: 0}
    - target: {fileID: 7328364074135145449, guid: f396edbece2e8524ca37bf949819ecc8,
        type: 3}
      propertyPath: smoothMode
      value: 1
      objectReference: {fileID: 0}
    - target: {fileID: 7328364074135145449, guid: f396edbece2e8524ca37bf949819ecc8,
        type: 3}
      propertyPath: greenAmountOfBlocksToAdd
      value: 1000
      objectReference: {fileID: 0}
    - target: {fileID: 7328364074135145449, guid: f396edbece2e8524ca37bf949819ecc8,
        type: 3}
      propertyPath: greenProbabilityToGoUp
      value: 1
      objectReference: {fileID: 0}
    - target: {fileID: 7328364074135145449, guid: f396edbece2e8524ca37bf949819ecc8,
        type: 3}
      propertyPath: greenProbabilityToGoDown
      value: 0
      objectReference: {fileID: 0}
    - target: {fileID: 7328364074135145449, guid: f396edbece2e8524ca37bf949819ecc8,
        type: 3}
      propertyPath: greenProbabilityToGoLeft
      value: 0.65
      objectReference: {fileID: 0}
    - target: {fileID: 7328364074135145449, guid: f396edbece2e8524ca37bf949819ecc8,
        type: 3}
      propertyPath: greenProbabilityToGoRight
      value: 0.65
      objectReference: {fileID: 0}
    - target: {fileID: 7328364074135145449, guid: f396edbece2e8524ca37bf949819ecc8,
        type: 3}
      propertyPath: blueAmountOfBlocksToAdd
      value: 1000
      objectReference: {fileID: 0}
    - target: {fileID: 7328364074135145449, guid: f396edbece2e8524ca37bf949819ecc8,
        type: 3}
      propertyPath: yellowAmountOfBlocksToAdd
      value: 1000
      objectReference: {fileID: 0}
    - target: {fileID: 7328364074135145449, guid: f396edbece2e8524ca37bf949819ecc8,
        type: 3}
      propertyPath: blueProbabilityToGoUp
      value: 0
      objectReference: {fileID: 0}
    - target: {fileID: 7328364074135145449, guid: f396edbece2e8524ca37bf949819ecc8,
        type: 3}
      propertyPath: blueProbabilityToGoDown
      value: 1
      objectReference: {fileID: 0}
    - target: {fileID: 7328364074135145449, guid: f396edbece2e8524ca37bf949819ecc8,
        type: 3}
      propertyPath: blocksSettings.Array.data[0].amountOfBlocksToAdd
      value: 2000
      objectReference: {fileID: 0}
    - target: {fileID: 7328364074135145449, guid: f396edbece2e8524ca37bf949819ecc8,
        type: 3}
      propertyPath: blocksSettings.Array.data[0].probabilityToGoUp
      value: 0.5
      objectReference: {fileID: 0}
    - target: {fileID: 7328364074135145449, guid: f396edbece2e8524ca37bf949819ecc8,
        type: 3}
      propertyPath: blocksSettings.Array.data[0].probabilityToGoDown
      value: 0.5
      objectReference: {fileID: 0}
    - target: {fileID: 7328364074135145449, guid: f396edbece2e8524ca37bf949819ecc8,
        type: 3}
      propertyPath: blocksSettings.Array.data[0].probabilityToGoLeft
      value: 0.5
      objectReference: {fileID: 0}
    - target: {fileID: 7328364074135145449, guid: f396edbece2e8524ca37bf949819ecc8,
        type: 3}
      propertyPath: blocksSettings.Array.data[0].probabilityToGoRight
      value: 0.5
      objectReference: {fileID: 0}
    - target: {fileID: 7328364074135145449, guid: f396edbece2e8524ca37bf949819ecc8,
        type: 3}
      propertyPath: blocksSettings.Array.data[1].amountOfBlocksToAdd
      value: 1000
      objectReference: {fileID: 0}
    - target: {fileID: 7328364074135145449, guid: f396edbece2e8524ca37bf949819ecc8,
        type: 3}
      propertyPath: blocksSettings.Array.data[1].probabilityToGoUp
      value: 0.5
      objectReference: {fileID: 0}
    - target: {fileID: 7328364074135145449, guid: f396edbece2e8524ca37bf949819ecc8,
        type: 3}
      propertyPath: blocksSettings.Array.data[1].probabilityToGoDown
      value: 0.5
      objectReference: {fileID: 0}
    - target: {fileID: 7328364074135145449, guid: f396edbece2e8524ca37bf949819ecc8,
        type: 3}
      propertyPath: blocksSettings.Array.data[1].probabilityToGoLeft
      value: 0.5
      objectReference: {fileID: 0}
    - target: {fileID: 7328364074135145449, guid: f396edbece2e8524ca37bf949819ecc8,
        type: 3}
      propertyPath: blocksSettings.Array.data[1].probabilityToGoRight
      value: 0.5
      objectReference: {fileID: 0}
    - target: {fileID: 7328364074135145449, guid: f396edbece2e8524ca37bf949819ecc8,
        type: 3}
      propertyPath: blocksSettings.Array.data[2].amountOfBlocksToAdd
      value: 1000
      objectReference: {fileID: 0}
    - target: {fileID: 7328364074135145449, guid: f396edbece2e8524ca37bf949819ecc8,
        type: 3}
      propertyPath: blocksSettings.Array.data[2].probabilityToGoUp
      value: 0.5
      objectReference: {fileID: 0}
    - target: {fileID: 7328364074135145449, guid: f396edbece2e8524ca37bf949819ecc8,
        type: 3}
      propertyPath: blocksSettings.Array.data[2].probabilityToGoDown
      value: 0.5
      objectReference: {fileID: 0}
    - target: {fileID: 7328364074135145449, guid: f396edbece2e8524ca37bf949819ecc8,
        type: 3}
      propertyPath: blocksSettings.Array.data[2].probabilityToGoLeft
      value: 0.5
      objectReference: {fileID: 0}
    - target: {fileID: 7328364074135145449, guid: f396edbece2e8524ca37bf949819ecc8,
        type: 3}
      propertyPath: blocksSettings.Array.data[2].probabilityToGoRight
      value: 0.5
      objectReference: {fileID: 0}
    - target: {fileID: 7328364074135145449, guid: f396edbece2e8524ca37bf949819ecc8,
        type: 3}
      propertyPath: blocksSettings.Array.data[0].blockRegionName
      value: Vegetation
      objectReference: {fileID: 0}
    - target: {fileID: 7328364074135145449, guid: f396edbece2e8524ca37bf949819ecc8,
        type: 3}
      propertyPath: blocksSettings.Array.data[1].blockRegionName
      value: Sand
      objectReference: {fileID: 0}
    - target: {fileID: 7328364074135145449, guid: f396edbece2e8524ca37bf949819ecc8,
        type: 3}
      propertyPath: blocksSettings.Array.data[2].blockRegionName
      value: 2000
      objectReference: {fileID: 0}
    - target: {fileID: 7328364074135145449, guid: f396edbece2e8524ca37bf949819ecc8,
        type: 3}
      propertyPath: blocksSettings.Array.data[3].blockRegionName
      value: Granite
      objectReference: {fileID: 0}
    - target: {fileID: 7328364074135145449, guid: f396edbece2e8524ca37bf949819ecc8,
        type: 3}
      propertyPath: blocksSettings.Array.data[3].amountOfBlocksToAdd
      value: 2000
      objectReference: {fileID: 0}
    - target: {fileID: 7328364074135145449, guid: f396edbece2e8524ca37bf949819ecc8,
        type: 3}
      propertyPath: blocksSettings.Array.data[3].probabilityToGoUp
      value: 0.5
      objectReference: {fileID: 0}
    - target: {fileID: 7328364074135145449, guid: f396edbece2e8524ca37bf949819ecc8,
        type: 3}
      propertyPath: blocksSettings.Array.data[3].probabilityToGoDown
      value: 0.5
      objectReference: {fileID: 0}
    - target: {fileID: 7328364074135145449, guid: f396edbece2e8524ca37bf949819ecc8,
        type: 3}
      propertyPath: blocksSettings.Array.data[3].probabilityToGoLeft
      value: 0.5
      objectReference: {fileID: 0}
    - target: {fileID: 7328364074135145449, guid: f396edbece2e8524ca37bf949819ecc8,
        type: 3}
      propertyPath: blocksSettings.Array.data[3].probabilityToGoRight
      value: 0.5
      objectReference: {fileID: 0}
    - target: {fileID: 7328364074135145449, guid: f396edbece2e8524ca37bf949819ecc8,
        type: 3}
      propertyPath: blocksSettings.Array.data[4].blockRegionName
      value: Granite
      objectReference: {fileID: 0}
    - target: {fileID: 7328364074135145449, guid: f396edbece2e8524ca37bf949819ecc8,
        type: 3}
      propertyPath: blocksSettings.Array.data[4].amountOfBlocksToAdd
      value: 1000
      objectReference: {fileID: 0}
    - target: {fileID: 7328364074135145449, guid: f396edbece2e8524ca37bf949819ecc8,
        type: 3}
      propertyPath: blocksSettings.Array.data[4].probabilityToGoUp
      value: 0.5
      objectReference: {fileID: 0}
    - target: {fileID: 7328364074135145449, guid: f396edbece2e8524ca37bf949819ecc8,
        type: 3}
      propertyPath: blocksSettings.Array.data[4].probabilityToGoDown
      value: 0.5
      objectReference: {fileID: 0}
    - target: {fileID: 7328364074135145449, guid: f396edbece2e8524ca37bf949819ecc8,
        type: 3}
      propertyPath: blocksSettings.Array.data[4].probabilityToGoLeft
      value: 0.5
      objectReference: {fileID: 0}
    - target: {fileID: 7328364074135145449, guid: f396edbece2e8524ca37bf949819ecc8,
        type: 3}
      propertyPath: blocksSettings.Array.data[4].probabilityToGoRight
      value: 0.5
      objectReference: {fileID: 0}
    - target: {fileID: 7328364074135145449, guid: f396edbece2e8524ca37bf949819ecc8,
        type: 3}
      propertyPath: blocksSettings.Array.data[5].blockRegionName
      value: Granite
      objectReference: {fileID: 0}
    - target: {fileID: 7328364074135145449, guid: f396edbece2e8524ca37bf949819ecc8,
        type: 3}
      propertyPath: blocksSettings.Array.data[5].amountOfBlocksToAdd
      value: 1000
      objectReference: {fileID: 0}
    - target: {fileID: 7328364074135145449, guid: f396edbece2e8524ca37bf949819ecc8,
        type: 3}
      propertyPath: blocksSettings.Array.data[5].probabilityToGoUp
      value: 0.5
      objectReference: {fileID: 0}
    - target: {fileID: 7328364074135145449, guid: f396edbece2e8524ca37bf949819ecc8,
        type: 3}
      propertyPath: blocksSettings.Array.data[5].probabilityToGoDown
      value: 0.5
      objectReference: {fileID: 0}
    - target: {fileID: 7328364074135145449, guid: f396edbece2e8524ca37bf949819ecc8,
        type: 3}
      propertyPath: blocksSettings.Array.data[5].probabilityToGoLeft
      value: 0.5
      objectReference: {fileID: 0}
    - target: {fileID: 7328364074135145449, guid: f396edbece2e8524ca37bf949819ecc8,
        type: 3}
      propertyPath: blocksSettings.Array.data[5].probabilityToGoRight
      value: 0.5
      objectReference: {fileID: 0}
    m_RemovedComponents: []
  m_SourcePrefab: {fileID: 100100000, guid: f396edbece2e8524ca37bf949819ecc8, type: 3}
--- !u!4 &1682974974564507424 stripped
Transform:
  m_CorrespondingSourceObject: {fileID: 7328364074135145448, guid: f396edbece2e8524ca37bf949819ecc8,
    type: 3}
  m_PrefabInstance: {fileID: 8280066509297243336}
  m_PrefabAsset: {fileID: 0}
--- !u!114 &1682974974564507425 stripped
MonoBehaviour:
  m_CorrespondingSourceObject: {fileID: 7328364074135145449, guid: f396edbece2e8524ca37bf949819ecc8,
    type: 3}
  m_PrefabInstance: {fileID: 8280066509297243336}
  m_PrefabAsset: {fileID: 0}
  m_GameObject: {fileID: 0}
  m_Enabled: 1
  m_EditorHideFlags: 0
  m_Script: {fileID: 11500000, guid: b797dff9bce9050498ed6b84faf61885, type: 3}
  m_Name: 
  m_EditorClassIdentifier: 
